%YAML 1.1
%TAG !u! tag:unity3d.com,2011:
--- !u!1045 &1
EditorBuildSettings:
  m_ObjectHideFlags: 0
  serializedVersion: 2
  m_Scenes:
  - enabled: 1
    path: Assets/Scenes/DEV_level_01.unity
    guid: 8c9cfa26abfee488c85f1582747f6a02
  m_configObjects:
    com.unity.input.settings: {fileID: 11400000, guid: 90a018db6a8ac8a4bb9b48648226a12d, type: 2}
